1 10 20
100 200 125
201 210 89
900 1000 174
3 5 8
90 80 111
400 670 145
456 789 171
980 1400 182
4500 7800 262
100 230 125
400 450 134
450 400 134
789 456 171
40 70 113
1 400 144
50 60 113
60 50 113
2 2 2
700 999 179
999 700 179
23 34 112
34 23 112
34 45 110
45 34 110
45 56 113
56 45 113
56 67 108
67 56 108
67 78 116
78 67 116
78 89 111
89 78 111
89 90 31
90 89 31
112 223 125
223 112 125
223 334 144
334 223 144
334 445 134
445 334 134
445 556 142
556 445 142
556 667 145
667 556 145
667 778 171
778 667 171
778 889 179
889 778 179
889 990 174
990 889 174
220 220 115
450 450 54
1100 1200 182
1200 1300 177
1300 1400 177
1400 1500 172
1500 1600 167
1600 1700 180
1800 1900 175
1900 2000 175
8657 8345 234
9004 3278 262
7385 590 262
5240 7001 262
4867 2351 238
9111 4405 262
4153 7696 262
9143 453 262
5819 6224 262
810 6384 262
308 3765 238
1638 7885 262
648 4865 238
3600 2660 217
2537 1604 209
1401 6817 262
8638 284 262
8460 4199 262
6204 5131 262
2125 9102 262
258 5441 238
2244 574 183
6590 7875 257
480 3156 217
2623 6777 262
1709 9908 262
659 8947 262
8674 5785 262
3660 3720 238
2364 9679 262
6534 3046 262
6677 8902 257
7932 8550 252
9280 3972 262
4403 5545 210
8329 2564 262
9419 8796 260
7817 5119 262
4059 8447 262
2644 273 209
7162 9902 260
9605 61 262
3928 3745 176
7876 9633 260
5446 9667 262
6146 1265 238
7782 8242 252
6810 4402 262
9098 8802 247
7371 2631 262
8039 7013 252
4096 4849 215
2579 5207 238
4251 8322 262
7043 9161 252
3820 3429 238
6004 4840 236
1695 9936 262
1176 1492 177
3333 4620 238
1869 5309 238
9581 9049 260
263 631 144
6081 2393 238
1974 8892 262
1825 99 182
7964 2122 262
4813 1233 238
194 6489 262
1931 1221 180
9486 9024 260
3553 4308 238
1314 2130 180
8637 4882 262
3758 3689 238
8985 3738 262
8774 2351 262
8209 7409 252
3520 6714 262
1022 7454 262
8012 978 262
2056 8676 262
2337 1568 183
5823 9273 262
9439 9969 242
9068 6712 257
2610 8960 262
7449 6844 257
7042 7571 239
696 6311 262
1097 4187 238
9771 7065 260
6490 7758 257
7342 960 262
9144 5250 262
9381 5321 262
5332 932 238
9072 4996 262
2699 4318 238
3752 7359 262
50 50 25
300 300 17
900 900 55
10000 10000 30
455 455 41
1000 3050 217
4050 90000 351
50000 121000 354
40567 134567 354
670000 780000 504
45678 34567 324
1 999999 525
999999 1 525
