1 10 20
100 200 125
201 210 89
900 1000 174
1 1 1
2 4 8
2 5 8
3 5 8
3 8 17
3 11 20
78 79 36
98 102 26
130 134 29
172 179 81
226 227 14
216 299 128
10 20 21
1 999 179
1 1001 179
1 1050 179
1 1999 182
1 2000 182
1 2001 182
1 9999 262
1 10000 262
1 10001 262
1 99999 351
1 100000 351
1 100001 351
1 999999 525
500 1500 182
500 2500 209
1001 1999 182
1500 2500 209
2500 3500 217
500 10500 262
1500 101500 351
899950 999950 507
998950 988950 440
997950 996950 440
996950 996850 321
999650 999750 290
999750 999850 259
999850 999950 259
99 999999 525
101 999999 525
999 999999 525
1000 999999 525
1001 999999 525
9999 999999 525
10000 999999 525
10001 999999 525
99999 999999 525
100000 999999 525
100001 999999 525
900000 999999 507
999992 999996 259
999991 999993 166
999991 999994 166
999990 999993 166
999990 999999 259
999998 999999 259
999999 999999 259
10 1 20
100 10 119
1000 100 179
10000 1000 262
100000 10000 351
999999 1 525
146267 695742 509
375197 326101 441
584623 592802 403
4495 672619 509
473958 46704 449
292338 361824 441
701402 251522 509
859357 228749 525
186887 212326 373
41087 880115 525
732345 213515 509
208300 649738 509
911816 492013 525
653035 733821 504
991932 147588 525
497802 780993 509
374435 471618 449
583329 402039 470
453388 610260 470
576256 614303 434
914829 528301 525
841792 90748 525
893715 613049 525
852778 339486 525
867316 401413 525
728587 966101 525
377891 502674 449
864534 727442 525
30179 123164 354
59438 881027 525
211137 369480 443
670223 891978 525
762465 354225 509
580256 85746 470
7891 266975 443
407157 811629 509
249514 860452 525
337412 558927 470
454622 893115 525
648086 727411 504
77628 486046 449
79166 807515 509
817491 424908 509
353356 384672 423
581526 189673 470
892317 568696 525
943831 109848 525
573556 101343 470
272554 576281 470
822908 150848 509
806403 543064 509
370034 598166 470
188576 478533 449
439510 526513 470
646814 833686 504
202651 19388 383
34733 846709 525
489245 940704 525
691905 822160 504
140457 851053 525
287712 211591 443
321729 983858 525
116816 474670 449
685576 515821 509
704629 423546 509
417215 598727 470
748853 450704 509
886186 470517 525
153075 268110 443
320224 864528 525
604301 46134 470
875297 706852 525
652411 366117 509
697165 90931 509
131817 764108 509
406209 112371 443
155109 225592 386
980920 692371 525
69301 944305 525
487517 696174 509
2336 950868 525
319254 884950 525
508656 669707 509
193834 702989 509
85966 508513 449
942284 662513 525
86299 363268 443
821037 73021 509
482208 645621 509
151065 524398 470
103327 598380 470
433349 472669 444
822123 906128 525
143363 402534 443
307149 518543 470
27061 27330 259
4659 162339 383
555005 935000 525
581414 829742 509
601598 751693 509
